<svg width="60" height="40" viewBox="0 0 60 40" fill="none" xmlns="http://www.w3.org/2000/svg">
<path d="M60 0H0V40H60V0Z" fill="black"/>
<path d="M20.9801 23.6258C26.6537 19.2964 33.568 16.9868 33.9561 16.9086C34.5254 16.7939 34.3356 16.6413 34.3356 16.6413C31.0001 17.0807 25.0704 19.4939 20.259 23.0533C17.6661 24.9712 15.066 28.0949 14.2566 29.1019L13.6191 27.099L12.8056 29.9479C12.7917 29.9318 12.7842 29.9236 12.7842 29.9236C12.0634 30.2671 10.5078 31.2211 10.5078 31.2211C11.0947 31.3212 11.7151 31.4873 12.3116 31.6773L11.6461 34.0075C11.6461 34.0075 12.8521 32.7077 13.6417 32.1486C14.7036 32.5602 15.4784 32.939 15.4784 32.939L14.775 30.7298C16.1017 28.0863 18.4238 25.5761 20.9801 23.6258ZM18.3999 16.0878C18.6068 15.8426 19.2373 15.3853 19.9296 14.9194C20.9447 15.4189 21.606 15.8972 21.606 15.8972L20.8468 14.3169C21.6106 13.8255 22.2511 13.4351 22.2511 13.4351C21.666 13.3362 21.0216 13.33 20.3937 13.3728L19.7091 11.9467C19.6601 12.1851 19.4701 12.8084 19.2494 13.5008C18.0751 13.6795 17.1667 13.9504 17.1667 13.9504C17.7907 14.0741 18.3889 14.2645 18.9334 14.4784C18.6505 15.3433 18.3999 16.0878 18.3999 16.0878ZM14.6816 24.2558C15.0587 23.795 15.689 23.1273 16.3453 22.4586C17.3881 22.8962 17.9255 23.2634 17.9255 23.2634L17.3114 21.4878C18.1399 20.6666 18.8172 20.0191 18.8172 20.0191C18.2477 19.9753 17.5673 20.0818 16.8849 20.2552L16.2752 18.4924C16.129 19.0622 15.9216 19.828 15.7049 20.6145C14.4705 21.0446 13.4675 21.5461 13.4675 21.5461C14.1567 21.7037 14.7684 21.8826 15.3016 22.0638C14.9619 23.2754 14.6816 24.2558 14.6816 24.2558ZM22.8838 28.1873L22.4597 26.0686L21.7483 28.2226L19.8038 28.2823L21.2816 29.6355L20.5057 31.9844L22.1843 30.4618L23.5983 31.7557L23.1616 29.5754L24.7555 28.1298L22.8838 28.1873ZM30.878 28.1734L30.3707 26.2787L29.8996 27.7929L28.2651 27.1564L29.5904 28.7867L29.005 30.6679L30.5082 29.9154L31.7557 31.4502L31.2457 29.5465L32.6282 28.8547L30.878 28.1734ZM36.2694 25.9645L35.6448 24.2558L35.2842 25.5896L33.7855 25.0192L35.0701 26.3814L34.6391 27.9772L36.0068 27.3747L37.2762 28.7215L36.6768 27.0795L37.8453 26.5648L36.2694 25.9645ZM40.8083 21.9659L40.2357 20.4391L39.7804 21.8722L38.0919 21.7178L39.4821 22.809L39.0405 24.1984L40.2884 23.4424L41.8104 24.6372L41.1636 22.9126L42.4743 22.1183L40.8083 21.9659ZM44.5522 15.4847L44.0868 14.1222L43.5701 15.781L41.9811 16.2597L43.2373 16.8487L42.683 18.6259L44.0188 17.2155L45.3578 17.8436L44.845 16.3424L46.0978 15.0192L44.5522 15.4847ZM48.6779 8.01552L47.5137 8.51747L47.0843 7.42387L46.664 8.88377L45.3578 9.4467L46.4173 9.73987L45.946 11.3741L47.1175 9.93363L48.1847 10.2292L47.7597 9.14447L48.6779 8.01552ZM38.1299 12.1566L39.1845 11.2186L40.2357 12.1948L39.9091 10.5739L40.9185 9.6758H39.7275L39.4389 8.2444L38.9603 9.6758H37.5226L38.6197 10.6936L38.1299 12.1566ZM30.6173 10.9925L31.6595 10.482L32.8178 11.8703L32.377 10.1307L33.5008 9.58036L32.1141 9.09586L31.6797 7.38564L31.2635 8.79871L29.8396 8.30162L31.0001 9.69237L30.6173 10.9925ZM23.5379 11.1461C23.5379 11.1795 24.1456 10.883 24.844 10.5312L26.3014 11.7269L25.6212 10.1369C26.3054 9.78737 26.8944 9.48138 26.8944 9.48138L25.1892 9.12635L24.3342 7.12561L24.0327 8.88598L22.367 8.5389L23.8034 9.82692C23.8034 9.82692 23.5379 11.0674 23.5379 11.1461Z" fill="white"/>
</svg>
