<svg width="9" height="28" viewBox="0 0 9 28" fill="none" xmlns="http://www.w3.org/2000/svg">
<path d="M8.97359 23.1005V11.298V0H7.73027V8.23473C6.93743 7.42387 5.82025 6.90132 4.59495 6.90132C2.19841 6.90132 0.234328 8.84738 0.216309 11.2439V11.28V18.2534V19.2804V23.0825C0.216309 25.497 2.18039 27.4611 4.59495 27.4611C5.82025 27.4611 6.93743 26.9566 7.73027 26.1277V27.317H8.97359V23.1005ZM1.42358 18.2714V11.298H1.44161C1.44161 9.42399 2.8471 7.91039 4.59495 7.91039C6.32478 7.91039 7.71225 9.40597 7.73027 11.2439V18.2714V19.2264V23.1185C7.71225 24.9745 6.32478 26.4881 4.59495 26.4881C2.8471 26.4881 1.42358 24.9745 1.42358 23.1005V19.2985V19.2444V18.2714Z" fill="#7B9935"/>
</svg>
