<svg width="9" height="22" viewBox="0 0 9 22" fill="none" xmlns="http://www.w3.org/2000/svg">
<path d="M8.90719 17.0376V15.1636H7.69991V17.0376H7.68189C7.68189 18.9116 6.2764 20.4252 4.52854 20.4252C2.79871 20.4252 1.41124 18.9296 1.39322 17.0736V10.785H8.90719V5.23509C8.90719 2.82053 6.9431 0.856445 4.52854 0.856445C2.11398 0.856445 0.167921 2.82053 0.149902 5.23509V17.0376V17.0736C0.167921 19.4882 2.11398 21.4162 4.52854 21.4162C6.92508 21.4162 8.88917 19.4702 8.90719 17.0736V17.0376ZM4.54656 1.8475C6.29442 1.8475 7.71793 3.3611 7.71793 5.23509V9.82996H1.41124V5.23509C1.41124 3.3611 2.79871 1.8475 4.54656 1.8475Z" fill="#7B9935"/>
</svg>
