<svg width="10" height="22" viewBox="0 0 10 22" fill="none" xmlns="http://www.w3.org/2000/svg">
<path d="M5.24169 21.4175H4.17856L0.214355 0.96582H1.45767L4.68309 17.8677C5.22367 15.2189 5.7282 12.5521 6.1967 9.95735C6.73727 7.05628 7.31389 4.08312 7.90852 1.10997L7.94456 0.96582H9.1158L5.24169 21.4175Z" fill="#7B9935"/>
</svg>
