<svg width="70" height="66" viewBox="0 0 70 66" fill="none" xmlns="http://www.w3.org/2000/svg">
<path d="M13.7177 32.0299C6.349 31.0755 0 36.3582 0 36.3582C0 36.3582 5.488 43.3675 12.138 44.2285C17.7987 44.9612 23.4453 41.5895 23.4453 41.5895C23.4453 41.5895 19.3783 32.7625 13.7177 32.0299Z" fill="#7B9935"/>
<path d="M41.342 16.7696C41.8344 10.6003 37.8794 4.66895 37.8794 4.66895C37.8794 4.66895 28.539 9.54328 28.049 15.7103C27.4074 23.7416 33.4694 30.3333 33.4694 30.3333C33.4694 30.3333 40.7657 24.0169 41.342 16.7696Z" fill="#7B9935"/>
<path d="M67.6667 53.6667C66.1803 53.6667 64.7267 53.5733 63.2847 53.4567C64.0687 50.8433 65.2143 45.6563 63.826 40.831C61.53 32.8463 51.919 27.4307 51.919 27.4307C51.919 27.4307 46.6293 36.1947 49.175 45.045C50.099 48.2603 53.1743 50.6917 56.161 52.3693C33.887 47.362 18.6667 27.8763 18.6667 2.33333C18.6667 1.04533 17.6237 0 16.3333 0C15.043 0 14 1.04533 14 2.33333C14 23.2657 23.401 40.4833 38.416 50.0757C36.785 49.8587 35.112 49.8307 33.4717 50.1177C26.4647 51.345 21 57.4513 21 57.4513C21 57.4513 29.1083 66.444 36.1153 65.2167C43.6777 63.8913 48.804 57.7383 50.337 55.671C55.7107 57.4 61.5183 58.3333 67.6667 58.3333C68.957 58.3333 70 57.288 70 56C70 54.712 68.957 53.6667 67.6667 53.6667Z" fill="#7B9935"/>
</svg>
